C:\Users\serge\IdeaProjects\Lab2-WEBAPP\src\main\java\org\practice\autopark\db\impl\MigrationSupportImpl.java
C:\Users\serge\IdeaProjects\Lab2-WEBAPP\src\main\java\org\practice\autopark\db\MigrationSupport.java
C:\Users\serge\IdeaProjects\Lab2-WEBAPP\src\main\java\org\practice\autopark\exception\StartupException.java
C:\Users\serge\IdeaProjects\Lab2-WEBAPP\src\main\java\org\practice\autopark\servlet\MainPageServlet.java
C:\Users\serge\IdeaProjects\Lab2-WEBAPP\src\main\java\org\practice\autopark\service\CarService.java
C:\Users\serge\IdeaProjects\Lab2-WEBAPP\src\main\java\org\practice\autopark\servlet\TestServlet.java
C:\Users\serge\IdeaProjects\Lab2-WEBAPP\src\main\java\org\practice\autopark\servlet\CarsServlet.java
C:\Users\serge\IdeaProjects\Lab2-WEBAPP\src\main\java\org\practice\autopark\service\impl\CarServiceImpl.java
C:\Users\serge\IdeaProjects\Lab2-WEBAPP\src\main\java\org\practice\autopark\persistence\entity\CarEntity.java
